{
  "page": 1,
  "total_results": 19669,
  "total_pages": 984,
  "results": [
    {
      "vote_count": 419,
      "id": 337167,
      "video": false,
      "vote_average": 6.8,
      "title": "Fifty Shades Freed",
      "popularity": 467.478859,
      "poster_path": "\/jjPJ4s3DWZZvI4vw8Xfi4Vqa1Q8.jpg",
      "original_language": "en",
      "original_title": "Fifty Shades Freed",
      "genre_ids": [
        18,
        10749
      ],
      "backdrop_path": "\/9ywA15OAiwjSTvg3cBs9B7kOCBF.jpg",
      "adult": false,
      "overview": "Believing they have left behind shadowy figures from their past, newlyweds Christian and Ana fully embrace an inextricable connection and shared life of luxury. But just as she steps into her role as Mrs. Grey and he relaxes into an unfamiliar stability, new threats could jeopardize their happy ending before it even begins.",
      "release_date": "2018-02-07"
    },
    {
      "vote_count": 111,
      "id": 441614,
      "video": false,
      "vote_average": 4.9,
      "title": "Loving",
      "popularity": 428.435586,
      "poster_path": "\/6uOMVZ6oG00xjq0KQiExRBw2s3P.jpg",
      "original_language": "es",
      "original_title": "Amar",
      "genre_ids": [
        10749
      ],
      "backdrop_path": "\/iBM6zvlOmcfodGhUa36sy7pM2Er.jpg",
      "adult": false,
      "overview": "Laura and Carlos love each other as if every day was the last, and perhaps that first love intensity is what will tear them apart a year later.",
      "release_date": "2017-04-21"
    },
    {
      "vote_count": 5802,
      "id": 211672,
      "video": false,
      "vote_average": 6.4,
      "title": "Minions",
      "popularity": 294.455777,
      "poster_path": "\/q0R4crx2SehcEEQEkYObktdeFy.jpg",
      "original_language": "en",
      "original_title": "Minions",
      "genre_ids": [
        10751,
        16,
        12,
        35
      ],
      "backdrop_path": "\/qLmdjn2fv0FV2Mh4NBzMArdA0Uu.jpg",
      "adult": false,
      "overview": "Minions Stuart, Kevin and Bob are recruited by Scarlet Overkill, a super-villain who, alongside her inventor husband Herb, hatches a plot to take over the world.",
      "release_date": "2015-06-17"
    },
    {
      "vote_count": 7007,
      "id": 198663,
      "video": false,
      "vote_average": 7,
      "title": "The Maze Runner",
      "popularity": 283.794957,
      "poster_path": "\/coss7RgL0NH6g4fC2s5atvf3dFO.jpg",
      "original_language": "en",
      "original_title": "The Maze Runner",
      "genre_ids": [
        28,
        9648,
        878,
        53
      ],
      "backdrop_path": "\/lkOZcsXcOLZYeJ2YxJd3vSldvU4.jpg",
      "adult": false,
      "overview": "Set in a post-apocalyptic world, young Thomas is deposited in a community of boys after his memory is erased, soon learning they're all trapped in a maze that will require him to join forces with fellow “runners” for a shot at escape.",
      "release_date": "2014-09-10"
    },
    {
      "vote_count": 7284,
      "id": 321612,
      "video": false,
      "vote_average": 6.8,
      "title": "Beauty and the Beast",
      "popularity": 218.924299,
      "poster_path": "\/tWqifoYuwLETmmasnGHO7xBjEtt.jpg",
      "original_language": "en",
      "original_title": "Beauty and the Beast",
      "genre_ids": [
        10751,
        14,
        10749
      ],
      "backdrop_path": "\/6aUWe0GSl69wMTSWWexsorMIvwU.jpg",
      "adult": false,
      "overview": "A live-action adaptation of Disney's version of the classic tale of a cursed prince and a beautiful young woman who helps him break the spell.",
      "release_date": "2017-03-16"
    },
    {
      "vote_count": 6826,
      "id": 245891,
      "video": false,
      "vote_average": 7,
      "title": "John Wick",
      "popularity": 176.515824,
      "poster_path": "\/5vHssUeVe25bMrof1HyaPyWgaP.jpg",
      "original_language": "en",
      "original_title": "John Wick",
      "genre_ids": [
        28,
        53
      ],
      "backdrop_path": "\/umC04Cozevu8nn3JTDJ1pc7PVTn.jpg",
      "adult": false,
      "overview": "Ex-hitman John Wick comes out of retirement to track down the gangsters that took everything from him.",
      "release_date": "2014-10-22"
    },
    {
      "vote_count": 6173,
      "id": 269149,
      "video": false,
      "vote_average": 7.7,
      "title": "Zootopia",
      "popularity": 172.438976,
      "poster_path": "\/sM33SANp9z6rXW8Itn7NnG1GOEs.jpg",
      "original_language": "en",
      "original_title": "Zootopia",
      "genre_ids": [
        16,
        12,
        10751,
        35
      ],
      "backdrop_path": "\/mhdeE1yShHTaDbJVdWyTlzFvNkr.jpg",
      "adult": false,
      "overview": "Determined to prove herself, Officer Judy Hopps, the first bunny on Zootopia's police force, jumps at the chance to crack her first case - even if it means partnering with scam-artist fox Nick Wilde to solve the mystery.",
      "release_date": "2016-02-11"
    },
    {
      "vote_count": 343,
      "id": 268531,
      "video": false,
      "vote_average": 6.1,
      "title": "Captain Underpants: The First Epic Movie",
      "popularity": 164.46309,
      "poster_path": "\/AjHZIkzhPXrRNE4VSLVWx6dirK9.jpg",
      "original_language": "en",
      "original_title": "Captain Underpants: The First Epic Movie",
      "genre_ids": [
        28,
        16,
        35,
        10751
      ],
      "backdrop_path": "\/4F2np8VZjzNJh0SXvVyG4xph9eO.jpg",
      "adult": false,
      "overview": "Two mischievous kids hypnotize their mean elementary school principal and turn him into their comic book creation, the kind-hearted and elastic-banded Captain Underpants.",
      "release_date": "2017-06-01"
    },
    {
      "vote_count": 2413,
      "id": 354912,
      "video": false,
      "vote_average": 7.7,
      "title": "Coco",
      "popularity": 164.421666,
      "poster_path": "\/eKi8dIrr8voobbaGzDpe8w0PVbC.jpg",
      "original_language": "en",
      "original_title": "Coco",
      "genre_ids": [
        12,
        16,
        35,
        10751
      ],
      "backdrop_path": "\/askg3SMvhqEl4OL52YuvdtY40Yb.jpg",
      "adult": false,
      "overview": "Despite his family’s baffling generations-old ban on music, Miguel dreams of becoming an accomplished musician like his idol, Ernesto de la Cruz. Desperate to prove his talent, Miguel finds himself in the stunning and colorful Land of the Dead following a mysterious chain of events. Along the way, he meets charming trickster Hector, and together, they set off on an extraordinary journey to unlock the real story behind Miguel's family history.",
      "release_date": "2017-10-27"
    },
    {
      "vote_count": 8199,
      "id": 99861,
      "video": false,
      "vote_average": 7.3,
      "title": "Avengers: Age of Ultron",
      "popularity": 154.84872,
      "poster_path": "\/t90Y3G8UGQp0f0DrP60wRu9gfrH.jpg",
      "original_language": "en",
      "original_title": "Avengers: Age of Ultron",
      "genre_ids": [
        28,
        12,
        878
      ],
      "backdrop_path": "\/vXIrvKadue7GdySiVh3huoQZiMi.jpg",
      "adult": false,
      "overview": "When Tony Stark tries to jumpstart a dormant peacekeeping program, things go awry and Earth’s Mightiest Heroes are put to the ultimate test as the fate of the planet hangs in the balance. As the villainous Ultron emerges, it is up to The Avengers to stop him from enacting his terrible plans, and soon uneasy alliances and unexpected action pave the way for an epic and unique global adventure.",
      "release_date": "2015-04-22"
    },
    {
      "vote_count": 2977,
      "id": 258489,
      "video": false,
      "vote_average": 5.6,
      "title": "The Legend of Tarzan",
      "popularity": 153.353572,
      "poster_path": "\/6FxOPJ9Ysilpq0IgkrMJ7PubFhq.jpg",
      "original_language": "en",
      "original_title": "The Legend of Tarzan",
      "genre_ids": [
        28,
        12
      ],
      "backdrop_path": "\/pWNBPN8ghaKtGLcQBMwNyM32Wbm.jpg",
      "adult": false,
      "overview": "Tarzan, having acclimated to life in London, is called back to his former home in the jungle to investigate the activities at a mining encampment.",
      "release_date": "2016-06-29"
    },
    {
      "vote_count": 124,
      "id": 335777,
      "video": false,
      "vote_average": 5.8,
      "title": "The Nut Job 2: Nutty by Nature",
      "popularity": 142.272944,
      "poster_path": "\/xOfdQHNF9TlrdujyAjiKfUhxSXy.jpg",
      "original_language": "en",
      "original_title": "The Nut Job 2: Nutty by Nature",
      "genre_ids": [
        10751,
        16,
        12,
        35
      ],
      "backdrop_path": "\/bd1X5nNrrAHVGG0MxsAeCOPPh1w.jpg",
      "adult": false,
      "overview": "When the evil mayor of Oakton decides to bulldoze Liberty Park and build a dangerous amusement park in its place, Surly Squirrel and his ragtag group of animal friends need to band together to save their home, defeat the mayor, and take back the park.",
      "release_date": "2017-08-11"
    },
    {
      "vote_count": 2725,
      "id": 343668,
      "video": false,
      "vote_average": 7,
      "title": "Kingsman: The Golden Circle",
      "popularity": 140.699589,
      "poster_path": "\/34xBL6BXNYFqtHO9zhcgoakS4aP.jpg",
      "original_language": "en",
      "original_title": "Kingsman: The Golden Circle",
      "genre_ids": [
        28,
        12,
        35
      ],
      "backdrop_path": "\/uExPmkOHJySrbJyJDJylHDqaT58.jpg",
      "adult": false,
      "overview": "When an attack on the Kingsman headquarters takes place and a new villain rises, Eggsy and Merlin are forced to work together with the American agency known as the Statesman to save the world.",
      "release_date": "2017-09-20"
    },
    {
      "vote_count": 4858,
      "id": 374720,
      "video": false,
      "vote_average": 7.4,
      "title": "Dunkirk",
      "popularity": 132.474819,
      "poster_path": "\/ebSnODDg9lbsMIaWg2uAbjn7TO5.jpg",
      "original_language": "en",
      "original_title": "Dunkirk",
      "genre_ids": [
        28,
        18,
        36,
        53,
        10752
      ],
      "backdrop_path": "\/4yjJNAgXBmzxpS6sogj4ftwd270.jpg",
      "adult": false,
      "overview": "The story of the miraculous evacuation of Allied soldiers from Belgium, Britain, Canada and France, who were cut off and surrounded by the German army from the beaches and harbour of Dunkirk between May 26th and June 4th 1940 during World War II.",
      "release_date": "2017-07-19"
    },
    {
      "vote_count": 6590,
      "id": 346364,
      "video": false,
      "vote_average": 7.1,
      "title": "It",
      "popularity": 132.343602,
      "poster_path": "\/9E2y5Q7WlCVNEhP5GiVTjhEhx1o.jpg",
      "original_language": "en",
      "original_title": "It",
      "genre_ids": [
        18,
        27,
        53
      ],
      "backdrop_path": "\/tcheoA2nPATCm2vvXw2hVQoaEFD.jpg",
      "adult": false,
      "overview": "In a small town in Maine, seven children known as The Losers Club come face to face with life problems, bullies and a monster that takes the shape of a clown called Pennywise.",
      "release_date": "2017-09-05"
    },
    {
      "vote_count": 2997,
      "id": 98566,
      "video": false,
      "vote_average": 5.8,
      "title": "Teenage Mutant Ninja Turtles",
      "popularity": 119.340293,
      "poster_path": "\/oDL2ryJ0sV2bmjgshVgJb3qzvwp.jpg",
      "original_language": "en",
      "original_title": "Teenage Mutant Ninja Turtles",
      "genre_ids": [
        878,
        28,
        12,
        14,
        35
      ],
      "backdrop_path": "\/OqCXGt5nl1cHPeotxCDvXLLe6p.jpg",
      "adult": false,
      "overview": "The city needs heroes. Darkness has settled over New York City as Shredder and his evil Foot Clan have an iron grip on everything from the police to the politicians. The future is grim until four unlikely outcast brothers rise from the sewers and discover their destiny as Teenage Mutant Ninja Turtles. The Turtles must work with fearless reporter April and her wise-cracking cameraman Vern Fenwick to save the city and unravel Shredder's diabolical plan.",
      "release_date": "2014-08-07"
    },
    {
      "vote_count": 3507,
      "id": 254128,
      "video": false,
      "vote_average": 6,
      "title": "San Andreas",
      "popularity": 118.419813,
      "poster_path": "\/qey0tdcOp9kCDdEZuJ87yE3crSe.jpg",
      "original_language": "en",
      "original_title": "San Andreas",
      "genre_ids": [
        28,
        18,
        53
      ],
      "backdrop_path": "\/cUfGqafAVQkatQ7N4y08RNV3bgu.jpg",
      "adult": false,
      "overview": "In the aftermath of a massive earthquake in California, a rescue-chopper pilot makes a dangerous journey across the state in order to rescue his estranged daughter.",
      "release_date": "2015-05-27"
    },
    {
      "vote_count": 2165,
      "id": 339964,
      "video": false,
      "vote_average": 6.6,
      "title": "Valerian and the City of a Thousand Planets",
      "popularity": 118.119615,
      "poster_path": "\/jfIpMh79fGRqYJ6PwZLCntzgxlF.jpg",
      "original_language": "en",
      "original_title": "Valerian and the City of a Thousand Planets",
      "genre_ids": [
        12,
        878,
        28
      ],
      "backdrop_path": "\/7WjMTRF6LDa4latRUIDM25xnDO0.jpg",
      "adult": false,
      "overview": "In the 28th century, Valerian and Laureline are special operatives charged with keeping order throughout the human territories. On assignment from the Minister of Defense, the two undertake a mission to Alpha, an ever-expanding metropolis where species from across the universe have converged over centuries to share knowledge, intelligence, and cultures. At the center of Alpha is a mysterious dark force which threatens the peaceful existence of the City of a Thousand Planets, and Valerian and Laureline must race to identify the menace and safeguard not just Alpha, but the future of the universe.",
      "release_date": "2017-07-20"
    },
    {
      "vote_count": 7279,
      "id": 240832,
      "video": false,
      "vote_average": 6.2,
      "title": "Lucy",
      "popularity": 115.497313,
      "poster_path": "\/rwn876MeqienhOVSSjtUPnwxn0Z.jpg",
      "original_language": "en",
      "original_title": "Lucy",
      "genre_ids": [
        28,
        878
      ],
      "backdrop_path": "\/eCgIoGvfNXrbSiQGqQHccuHjQHm.jpg",
      "adult": false,
      "overview": "A woman, accidentally caught in a dark deal, turns the tables on her captors and transforms into a merciless warrior evolved beyond human logic.",
      "release_date": "2014-07-25"
    },
    {
      "vote_count": 812,
      "id": 399404,
      "video": false,
      "vote_average": 7.2,
      "title": "Darkest Hour",
      "popularity": 115.492017,
      "poster_path": "\/xa6G3aKlysQeVg9wOb0dRcIGlWu.jpg",
      "original_language": "en",
      "original_title": "Darkest Hour",
      "genre_ids": [
        18,
        36
      ],
      "backdrop_path": "\/zXwFJMwvQcJFitP9GcHZvHAHGe8.jpg",
      "adult": false,
      "overview": "A thrilling and inspiring true story begins on the eve of World War II as, within days of becoming Prime Minister of Great Britain, Winston Churchill must face one of his most turbulent and defining trials: exploring a negotiated peace treaty with Nazi Germany, or standing firm to fight for the ideals, liberty and freedom of a nation. As the unstoppable Nazi forces roll across Western Europe and the threat of invasion is imminent, and with an unprepared public, a skeptical King, and his own party plotting against him, Churchill must withstand his darkest hour, rally a nation, and attempt to change the course of world history.",
      "release_date": "2017-11-22"
    }
  ]
}